<svg version="1.1" xmlns="http://www.w3.org/2000/svg" xmlns:xlink="http://www.w3.org/1999/xlink" x="0px" y="0px" viewBox="0 0 64 64">

    <symbol id="icon_settings" viewBox="0 0 25 24">
        <path d="M12.1907 6.51324L11.9173 6.4399C8.83532 5.61323 5.50045 6.43973 3.20713 8.65601M12.1907 6.51324L1.20637 17.9129C-0.0895862 14.717 0.695384 11.0838 3.20713 8.65601M12.1907 6.51324L12.3943 6.31649M12.1907 6.51324L12.3943 6.31649M3.20713 8.65601L2.85967 8.29647L3.20713 8.65601ZM12.3943 6.31649L17.7482 1.14202C18.3476 0.562775 19.3143 0.585716 19.8847 1.19186L23.449 4.97954C23.9962 5.56108 23.9748 6.46569 23.3998 7.02143L18.2758 11.9737L18.0604 12.1819M12.3943 6.31649L18.0604 12.1819M18.0604 12.1819L18.1424 12.4701M18.0604 12.1819L18.1424 12.4701M18.1424 12.4701C18.9876 15.4397 18.1327 18.6515 15.8446 20.8631C13.3322 23.2911 9.57027 24.0509 6.26082 22.7975L6.26075 22.7975M18.1424 12.4701L6.26075 22.7975M6.26075 22.7975C5.9585 22.683 5.73727 22.4287 5.67131 22.1239C5.60603 21.8195 5.70308 21.5029 5.93191 21.2815L10.5198 16.8475L10.8918 16.488M6.26075 22.7975L10.8918 16.488M10.8918 16.488L10.5198 16.1285M10.8918 16.488L10.5198 16.1285M10.5198 16.1285L8.08501 13.7752L7.73753 13.4394M10.5198 16.1285L7.73753 13.4394M7.73753 13.4394L7.39005 13.7752M7.73753 13.4394L7.39005 13.7752M7.39005 13.7752L2.78111 18.2298M7.39005 13.7752L2.78111 18.2298M2.78111 18.2298C2.78111 18.2298 2.78111 18.2298 2.78111 18.2298M2.78111 18.2298L2.78111 18.2298M2.78111 18.2298C2.55211 18.4511 2.22229 18.5464 1.90414 18.4822M2.78111 18.2298L1.90414 18.4822M1.90414 18.4822C1.58584 18.4179 1.32406 18.203 1.20638 17.9129L1.90414 18.4822Z" stroke="black"/>
    </symbol>

    <symbol id="icon_envelope" viewBox="0 0 97 62">
        <path fill-rule="evenodd" d="M96.207,2.077 C96.207,1.874 96.059,1.740 95.985,1.555 C95.927,1.377 95.960,1.181 95.837,1.019 C95.804,0.984 95.763,0.990 95.738,0.965 C95.591,0.791 95.385,0.744 95.180,0.641 C94.975,0.546 94.811,0.411 94.589,0.398 C94.548,0.392 94.523,0.351 94.482,0.351 L1.895,0.351 C1.854,0.351 1.830,0.392 1.788,0.398 C1.559,0.411 1.394,0.546 1.197,0.641 C0.992,0.744 0.787,0.797 0.631,0.965 C0.614,0.990 0.565,0.984 0.532,1.019 C0.417,1.181 0.450,1.377 0.393,1.555 C0.319,1.740 0.171,1.874 0.171,2.077 L0.171,60.007 C0.171,60.210 0.319,60.344 0.393,60.527 C0.450,60.710 0.417,60.905 0.532,61.063 C0.565,61.100 0.598,61.086 0.631,61.115 C0.943,61.476 1.378,61.733 1.895,61.733 L94.482,61.733 C94.999,61.733 95.427,61.476 95.747,61.115 C95.780,61.086 95.804,61.100 95.837,61.063 C95.960,60.905 95.927,60.710 95.985,60.527 C96.059,60.344 96.207,60.210 96.207,60.007 L96.207,2.077 ZM3.620,5.594 L36.398,31.044 L3.620,56.490 L3.620,5.594 ZM56.137,29.669 C56.129,29.673 56.112,29.669 56.112,29.673 L48.624,35.502 L48.197,35.833 L47.836,35.558 L40.282,29.673 C40.265,29.669 40.257,29.673 40.241,29.669 L6.929,3.800 L89.441,3.800 L56.137,29.669 ZM39.214,33.225 L47.138,39.374 C47.310,39.512 47.532,39.518 47.729,39.580 C47.844,39.610 47.934,39.687 48.066,39.693 C48.115,39.699 48.148,39.742 48.197,39.742 C48.238,39.742 48.271,39.699 48.320,39.699 C48.443,39.687 48.534,39.619 48.649,39.586 C48.854,39.526 49.076,39.512 49.256,39.374 L57.180,33.225 L89.441,58.285 L6.929,58.285 L39.214,33.225 ZM59.988,31.044 L92.758,5.594 L92.758,56.490 L59.988,31.044 Z"/>
    </symbol>

    <symbol id="icon_lock" viewBox="0 0 36 35">
        <path d="M5.44 15.4687H1C0.447715 15.4687 0 15.9165 0 16.4687V32C0 32.5523 0.447715 33 1 33H33C33.5523 33 34 32.5523 34 32V16.4687C34 15.9165 33.5523 15.4687 33 15.4687H28.56M5.44 15.4687C5.44 12.375 6.8 0 17 0C27.2 0 28.56 12.375 28.56 15.4687M5.44 15.4687H28.56" transform="translate(0.787109 1)"/>
        <path d="M1.41709 1.77932L1.42105 1.74802V1.71648C1.42105 1.07731 1.98808 0.5 2.76316 0.5C3.53823 0.5 4.10526 1.07731 4.10526 1.71648V1.74802L4.10923 1.77932L4.32669 3.49579L4.34749 3.65997L4.46213 3.77932C4.81708 4.14885 5.02632 4.62869 5.02632 5.14943C5.02632 6.26258 4.04692 7.22414 2.76316 7.22414C1.4794 7.22414 0.5 6.26258 0.5 5.14943C0.5 4.62869 0.709235 4.14885 1.06418 3.77932L1.17882 3.65997L1.19962 3.49579L1.41709 1.77932Z" transform="translate(14.7871 22)"/>
    </symbol>

    <symbol id="icon_" viewBox="0 0 333.84 410">

    </symbol>

</svg>

